<svg xmlns="http://www.w3.org/2000/svg" width="35" height="36" viewBox="0 0 35 36">
  <g id="ele07" transform="translate(-700.47 -158)">
    <path id="Path_24873" data-name="Path 24873" d="M101.256,47,93.975,34.548,78.07,38.73,88.52,28.35l-6.9-9.419,13.218,3.881L106.531,11l-2.668,14.336,9.206,5.991-11.232,2.524ZM96.463,28.915l.642,1.093,3.711-.829L98.288,27.54l.3-1.582L96.362,28.2l-2.387-.678.943,1.319-.662.659Z" transform="translate(622.4 147)" fill="#191919"/>
    <path id="Path_24874" data-name="Path 24874" d="M84.335,19.456,92.127,21.9l7.025-7.489-1.494,8.539,5.894,4.077-7.63,1.837-.262,6.823-3.9-7.065L82.68,31.164l5.591-5.914Z" transform="translate(626.872 149.449)" fill="#fff"/>
  </g>
</svg>
