<svg xmlns="http://www.w3.org/2000/svg" width="220.484" height="151" viewBox="0 0 220.484 151">
  <g id="ele012" transform="translate(-1571.003 -2399)">
    <g id="F-Paper" transform="translate(1607 2412.795)">
      <path id="Path_31807" data-name="Path 31807" d="M431.864,391.048H536.713l-78.638,136.2H353.226Z" transform="translate(-353.226 -391.048)" fill="#fff" stroke="#000" stroke-linejoin="round" stroke-width="2"/>
      <line id="Line_306" data-name="Line 306" x1="74.449" transform="translate(69.076 45.402)" fill="none" stroke="#000" stroke-linejoin="round" stroke-width="2"/>
      <line id="Line_307" data-name="Line 307" x1="74.449" transform="translate(60.638 60.017)" fill="none" stroke="#000" stroke-linejoin="round" stroke-width="2"/>
      <line id="Line_308" data-name="Line 308" x1="37.225" transform="translate(114.739 30.786)" fill="none" stroke="#000" stroke-linejoin="round" stroke-width="2"/>
      <line id="Line_309" data-name="Line 309" x1="74.449" transform="translate(49.387 79.505)" fill="none" stroke="#000" stroke-linejoin="round" stroke-width="2"/>
      <line id="Line_310" data-name="Line 310" x1="12.374" transform="translate(97.397 103.864)" fill="none" stroke="#000" stroke-linejoin="round" stroke-width="2"/>
    </g>
    <g id="Pencil" transform="translate(1572.003 2400)">
      <path id="Path_31786" data-name="Path 31786" d="M613.1,345.4l5.466-20.4-20.4,5.466-5.466,20.4Z" transform="translate(-592.701 -325)" fill="#fff" stroke="#000" stroke-linejoin="round" stroke-width="2"/>
      <path id="Path_31787" data-name="Path 31787" d="M597.909,404.84l-20.4,5.466-14.933-14.933,20.4-5.466Z" transform="translate(-562.577 -369.518)" stroke="#000" stroke-linejoin="round" stroke-width="2"/>
      <path id="Path_31788" data-name="Path 31788" d="M565.584,339.933,550.651,325l-5.466,20.4,14.933,14.933Z" transform="translate(-524.796 -325)" stroke="#000" stroke-linejoin="round" stroke-width="2"/>
      <path id="Path_31789" data-name="Path 31789" d="M360.589,372.516,355.123,392.9l59.731,59.7,5.466-20.387Z" transform="translate(-319.835 -357.583)" fill="#fff" stroke="#000" stroke-linejoin="round" stroke-width="2"/>
      <path id="Path_31790" data-name="Path 31790" d="M392.9,437.423l-20.388,5.466,59.7,59.732,20.388-5.466Z" transform="translate(-357.582 -402.135)" fill="#fff" stroke="#000" stroke-linejoin="round" stroke-width="2"/>
      <path id="Path_31791" data-name="Path 31791" d="M330.466,562.578l9.467,35.331L325,582.976Z" transform="translate(-229.981 -487.957)" fill="#fff" stroke="#000" stroke-linejoin="round" stroke-width="2"/>
      <path id="Path_31792" data-name="Path 31792" d="M325,632.951l35.332,9.467L345.4,627.484Z" transform="translate(-250.379 -532.465)" fill="#fff" stroke="#000" stroke-linejoin="round" stroke-width="2"/>
      <path id="Path_31793" data-name="Path 31793" d="M325,646.147l7.516-1.106,1.106-7.516,3.156,11.777Z" transform="translate(-226.825 -539.35)" stroke="#000" stroke-linejoin="round" stroke-width="2"/>
    </g>
  </g>
</svg>
